…
1.  `filter()` picks cases based on their values.
2.  `select()` picks variables based on their names.
3.  `arrange()` changes the ordering of the rows.
4.  `mutate()` adds new variables that are functions of existing variables
5.  `summarise()` reduces multiple values down to a single summary.

These all combine naturally with `group_by()` which allows you to perform any operation "by group". You can learn more about them in `vignette("dplyr")`. As well as these single-table verbs, dplyr also provides a variety of two-table verbs (joins and mutations), which you can learn about in `vignette("two-table")`.

We will explore now a bit with the starwars dataset, which comes together with `dplyr`

``` r
starwars
```

    ## # A tibble: 87 x 13
    ##    name     height  mass hair_color skin_color eye_color birth_year gender
    ##    <chr>     <int> <dbl> <chr>      <chr>      <chr>          <dbl> <chr> 
    ##  1 Luke Sk~    172    77 blond      fair       blue            19   male  
    ##  2 C-3PO       167    75 <NA>       gold       yellow         112   <NA>  
    ##  3 R2-D2        96    32 <NA>       white, bl~ red             33   <NA>  
    ##  4 Darth V~    202   136 none       white      yellow          41.9 male  
    ##  5 Leia Or~    150    49 brown      light      brown           19   female
    ##  6 Owen La~    178   120 brown, gr~ light      blue            52   male  
    ##  7 Beru Wh~    165    75 brown      light      blue            47   female
    ##  8 R5-D4        97    32 <NA>       white, red red             NA   <NA>  
    ##  9 Biggs D~    183    84 black      light      brown           24   male  
    ## 10 Obi-Wan~    182    77 auburn, w~ fair       blue-gray       57   male  
    ## # ... with 77 more rows, and 5 more variables: homeworld <chr>,
    ## #   species <chr>, films <list>, vehicles <list>, starships <list>
…
#### 2: `select()`

The verb `select()` lets you subset a dataframe by column (variable), meaning the output will only contain certain columns in the stated order

``` r
starwars %>% 
  select(name, homeworld)
```

    ## # A tibble: 87 x 2
    ##    name               homeworld
    ##    <chr>              <chr>    
    ##  1 Luke Skywalker     Tatooine 
    ##  2 C-3PO              Tatooine 
    ##  3 R2-D2              Naboo    
    ##  4 Darth Vader        Tatooine 
    ##  5 Leia Organa        Alderaan 
    ##  6 Owen Lars          Tatooine 
    ##  7 Beru Whitesun lars Tatooine 
    ##  8 R5-D4              Tatooine 
    ##  9 Biggs Darklighter  Tatooine 
    ## 10 Obi-Wan Kenobi     Stewjon  
    ## # ... with 77 more rows

It can also be used to deselect columns with a leading `-`

``` r
starwars %>% 
  select(-birth_year, -skin_color)
```

    ## # A tibble: 87 x 11
    ##    name   height  mass hair_color eye_color gender homeworld species films
    ##    <chr>   <int> <dbl> <chr>      <chr>     <chr>  <chr>     <chr>   <lis>
    ##  1 Luke ~    172    77 blond      blue      male   Tatooine  Human   <chr~
    ##  2 C-3PO     167    75 <NA>       yellow    <NA>   Tatooine  Droid   <chr~
    ##  3 R2-D2      96    32 <NA>       red       <NA>   Naboo     Droid   <chr~
    ##  4 Darth~    202   136 none       yellow    male   Tatooine  Human   <chr~
    ##  5 Leia ~    150    49 brown      brown     female Alderaan  Human   <chr~
    ##  6 Owen ~    178   120 brown, gr~ blue      male   Tatooine  Human   <chr~
    ##  7 Beru ~    165    75 brown      blue      female Tatooine  Human   <chr~
    ##  8 R5-D4      97    32 <NA>       red       <NA>   Tatooine  Droid   <chr~
    ##  9 Biggs~    183    84 black      brown     male   Tatooine  Human   <chr~
    ## 10 Obi-W~    182    77 auburn, w~ blue-gray male   Stewjon   Human   <chr~
    ## # ... with 77 more rows, and 2 more variables: vehicles <list>,
    ## #   starships <list>

Lastly, many of `dplyr`'s other conditions can be applied to select or deselect columns. More on that later.

``` r
starwars %>% 
  select(name, ends_with("color"))
```

    ## # A tibble: 87 x 4
    ##    name               hair_color    skin_color  eye_color
    ##    <chr>              <chr>         <chr>       <chr>    
    ##  1 Luke Skywalker     blond         fair        blue     
    ##  2 C-3PO              <NA>          gold        yellow   
    ##  3 R2-D2              <NA>          white, blue red      
    ##  4 Darth Vader        none          white       yellow   
    ##  5 Leia Organa        brown         light       brown    
    ##  6 Owen Lars          brown, grey   light       blue     
    ##  7 Beru Whitesun lars brown         light       blue     
    ##  8 R5-D4              <NA>          white, red  red      
    ##  9 Biggs Darklighter  black         light       brown    
    ## 10 Obi-Wan Kenobi     auburn, white fair        blue-gray
    ## # ... with 77 more rows
…
``` r
starwars %>% 
  arrange(homeworld, desc(mass))
```

    ## # A tibble: 87 x 13
    ##    name     height  mass hair_color skin_color eye_color birth_year gender
    ##    <chr>     <int> <dbl> <chr>      <chr>      <chr>          <dbl> <chr> 
    ##  1 Raymus ~    188    79 brown      light      brown             NA male  
    ##  2 Leia Or~    150    49 brown      light      brown             19 female
    ##  3 Bail Pr~    191    NA black      tan        brown             67 male  
    ##  4 Ratts T~     79    15 none       grey, blue unknown           NA male  
    ##  5 Lobot       175    79 none       light      blue              37 male  
    ##  6 Jek Ton~    180   110 brown      fair       blue              NA male  
    ##  7 Nute Gu~    191    90 none       mottled g~ red               NA male  
    ##  8 Ki-Adi-~    198    82 white      pale       yellow            92 male  
    ##  9 Mas Ame~    196    NA none       blue       blue              NA male  
    ## 10 Mon Mot~    150    NA auburn     fair       blue              48 female
    ## # ... with 77 more rows, and 5 more variables: homeworld <chr>,
    ## #   species <chr>, films <list>, vehicles <list>, starships <list>
…
``` r
starwars %>% 
  mutate(bmi = mass / ((height / 100)  ^ 2),
         mass.rel = mass / max(mass, na.rm = TRUE)) %>%
  select(name:mass, mass.rel, bmi) %>%
  arrange(desc(bmi))
```

    ## # A tibble: 87 x 5
    ##    name                  height  mass mass.rel   bmi
    ##    <chr>                  <int> <dbl>    <dbl> <dbl>
    ##  1 Jabba Desilijic Tiure    175  1358   1      443. 
    ##  2 Dud Bolt                  94    45   0.0331  50.9
    ##  3 Yoda                      66    17   0.0125  39.0
    ##  4 Owen Lars                178   120   0.0884  37.9
    ##  5 IG-88                    200   140   0.103   35  
    ##  6 R2-D2                     96    32   0.0236  34.7
    ##  7 Grievous                 216   159   0.117   34.1
    ##  8 R5-D4                     97    32   0.0236  34.0
    ##  9 Jek Tono Porkins         180   110   0.0810  34.0
    ## 10 Darth Vader              202   136   0.100   33.3
    ## # ... with 77 more rows
…
First of all, it works amazingly well with the `summarize()` verb, producing within group summaries

``` r
starwars %>% 
  group_by(homeworld) %>%
  summarize(mean.height = mean(height, na.rm = TRUE)) %>%
  ungroup() %>%
  arrange(desc(mean.height))
```

    ## # A tibble: 49 x 2
    ##    homeworld   mean.height
    ##    <chr>             <dbl>
    ##  1 Quermia            264 
    ##  2 Kashyyyk           231 
    ##  3 Kalee              216 
    ##  4 Kamino             208.
    ##  5 Utapau             206 
    ##  6 Cerea              198 
    ##  7 Ojom               198 
    ##  8 Champala           196 
    ##  9 Glee Anselm        196 
    ## 10 Serenno            193 
    ## # ... with 39 more rows
…
Note: For my own workflow in R, I prefer to save datasets (if not too large) as `.rds` file, which creates a serialized version of the dataset and then saves it with gzip compression. Thatreduces the disk-space of datasets, while they are still read faster than for example a `.csv`.

Step 2: First Inspection
------------------------

Lets first have a look what's in the dataset.

``` r
votes
```

    ## # A tibble: 508,929 x 4
    ##     rcid session  vote ccode
    ##    <dbl>   <dbl> <dbl> <int>
    ##  1    46       2     1     2
    ##  2    46       2     1    20
    ##  3    46       2     9    31
    ##  4    46       2     1    40
    ##  5    46       2     1    41
    ##  6    46       2     1    42
    ##  7    46       2     9    51
    ##  8    46       2     9    52
    ##  9    46       2     9    53
    ## 10    46       2     9    54
    ## # ... with 508,919 more rows
…
So, to sum up: \* Every row contains a voting choice for a particular resolution on country level. \* Consequently, we will for every resulution have a single row for every country. \* All variables are coded numerically

Step 3: Preprocessing
---------------------

### Filtering

One step of data cleaning is removing observations (rows) that you're not interested in. In this case, you want to remove "Not present" and "Not a member". Since we are for now not interested in them, lets get rid of them

``` r
votes %>% filter(vote <= 3)
```

    ## # A tibble: 353,547 x 4
    ##     rcid session  vote ccode
    ##    <dbl>   <dbl> <dbl> <int>
    ##  1    46       2     1     2
    ##  2    46       2     1    20
    ##  3    46       2     1    40
    ##  4    46       2     1    41
    ##  5    46       2     1    42
    ##  6    46       2     1    70
    ##  7    46       2     1    90
    ##  8    46       2     1    91
    ##  9    46       2     1    92
    ## 10    46       2     1    93
    ## # ... with 353,537 more rows

### Adding a year column

The next step of data cleaning is manipulating your variables (columns) to make them more informative. In this case, you have a session column that is hard to interpret intuitively. But since the UN started voting in 1946, and holds one session per year, you can get the year of a UN resolution by adding 1945 to the session number.

``` r
votes %>%
  mutate(year = session + 1945)
```

    ## # A tibble: 508,929 x 5
    ##     rcid session  vote ccode  year
    ##    <dbl>   <dbl> <dbl> <int> <dbl>
    ##  1    46       2     1     2  1947
    ##  2    46       2     1    20  1947
    ##  3    46       2     9    31  1947
    ##  4    46       2     1    40  1947
    ##  5    46       2     1    41  1947
    ##  6    46       2     1    42  1947
    ##  7    46       2     9    51  1947
    ##  8    46       2     9    52  1947
    ##  9    46       2     9    53  1947
    ## 10    46       2     9    54  1947
    ## # ... with 508,919 more rows
…
    ## Warning: package 'countrycode' was built under R version 3.5.1

``` r
votes  %>%
  mutate(country = countrycode(ccode, "cown", "country.name"))
```

    ## Warning in countrycode(ccode, "cown", "country.name"): Some values were not matched unambiguously: 260, 816

    ## # A tibble: 508,929 x 5
    ##     rcid session  vote ccode country           
    ##    <dbl>   <dbl> <dbl> <int> <chr>             
    ##  1    46       2     1     2 United States     
    ##  2    46       2     1    20 Canada            
    ##  3    46       2     9    31 Bahamas           
    ##  4    46       2     1    40 Cuba              
    ##  5    46       2     1    41 Haiti             
    ##  6    46       2     1    42 Dominican Republic
    ##  7    46       2     9    51 Jamaica           
    ##  8    46       2     9    52 Trinidad & Tobago 
    ##  9    46       2     9    53 Barbados          
    ## 10    46       2     9    54 Dominica          
    ## # ... with 508,919 more rows
…
``` r
votes %<>% 
  filter(vote <= 3) %>%
  mutate(year = session + 1945,
         country = countrycode(ccode, "cown", "country.name"))
```

    ## Warning in countrycode(ccode, "cown", "country.name"): Some values were not matched unambiguously: 260, 816

``` r
votes
```

    ## # A tibble: 353,547 x 6
    ##     rcid session  vote ccode  year country           
    ##    <dbl>   <dbl> <dbl> <int> <dbl> <chr>             
    ##  1    46       2     1     2  1947 United States     
    ##  2    46       2     1    20  1947 Canada            
    ##  3    46       2     1    40  1947 Cuba              
    ##  4    46       2     1    41  1947 Haiti             
    ##  5    46       2     1    42  1947 Dominican Republic
    ##  6    46       2     1    70  1947 Mexico            
    ##  7    46       2     1    90  1947 Guatemala         
    ##  8    46       2     1    91  1947 Honduras          
    ##  9    46       2     1    92  1947 El Salvador       
    ## 10    46       2     1    93  1947 Nicaragua         
    ## # ... with 353,537 more rows
…
Ok, we see that in general, countries tend to be "aggreable". While nice to know, this is not terribly informative. As always, single numbers tell us little, trends, context, and comparison does usually provide more insights. So lets start with putting this number in perspective.

### Summarizing by year

The `summarize()` function is especially useful when used within groups. Here, it gives not a overal summary, but one for every group instance. For example, we might like to know how much the average "agreeableness" of countries changed from year to year. To examine this, you can use `group_by()` to perform your summary not for the entire dataset, but within each year.

``` r
votes %>%
  group_by(year) %>%
  summarize(total = n(),
            percent_yes = mean(vote == 1)) 
```

    ## # A tibble: 34 x 3
    ##     year total percent_yes
    ##    <dbl> <int>       <dbl>
    ##  1  1947  2039       0.569
    ##  2  1949  3469       0.438
    ##  3  1951  1434       0.585
    ##  4  1953  1537       0.632
    ##  5  1955  2169       0.695
    ##  6  1957  2708       0.609
    ##  7  1959  4326       0.588
    ##  8  1961  7482       0.573
    ##  9  1963  3308       0.729
    ## 10  1965  4382       0.708
    ## # ... with 24 more rows
…
Well, apparently that was true till the 80s, and then somewhat settled.

### Summarizing by country

In the last exercise, you performed a summary of the votes within each year. You could instead summarize() within each country, which would let you compare voting patterns between countries.

``` r
votes %>%
  group_by(country) %>%
  summarize(total = n(),
            percent_yes = mean(vote == 1))
```

    ## # A tibble: 199 x 3
    ##    country           total percent_yes
    ##    <chr>             <int>       <dbl>
    ##  1 Afghanistan        2373       0.859
    ##  2 Albania            1695       0.717
    ##  3 Algeria            2213       0.899
    ##  4 Andorra             719       0.638
    ##  5 Angola             1431       0.924
    ##  6 Antigua & Barbuda  1302       0.912
    ##  7 Argentina          2553       0.768
    ##  8 Armenia             758       0.747
    ##  9 Australia          2575       0.557
    ## 10 Austria            2389       0.622
    ## # ... with 189 more rows
